^C:\USERS\LANCE\DOCUMENTS\C++\SDL-TEMPLATE-MASTER\SDLTEMPLATE\SDLTEMPLATE\X64\DEBUG\BULLET.OBJ|C:\USERS\LANCE\DOCUMENTS\C++\SDL-TEMPLATE-MASTER\SDLTEMPLATE\SDLTEMPLATE\X64\DEBUG\DRAW.OBJ|C:\USERS\LANCE\DOCUMENTS\C++\SDL-TEMPLATE-MASTER\SDLTEMPLATE\SDLTEMPLATE\X64\DEBUG\ENEMY.OBJ|C:\USERS\LANCE\DOCUMENTS\C++\SDL-TEMPLATE-MASTER\SDLTEMPLATE\SDLTEMPLATE\X64\DEBUG\GAMEOBJECT.OBJ|C:\USERS\LANCE\DOCUMENTS\C++\SDL-TEMPLATE-MASTER\SDLTEMPLATE\SDLTEMPLATE\X64\DEBUG\GAMESCENE.OBJ|C:\USERS\LANCE\DOCUMENTS\C++\SDL-TEMPLATE-MASTER\SDLTEMPLATE\SDLTEMPLATE\X64\DEBUG\INIT.OBJ|C:\USERS\LANCE\DOCUMENTS\C++\SDL-TEMPLATE-MASTER\SDLTEMPLATE\SDLTEMPLATE\X64\DEBUG\INPUT.OBJ|C:\USERS\LANCE\DOCUMENTS\C++\SDL-TEMPLATE-MASTER\SDLTEMPLATE\SDLTEMPLATE\X64\DEBUG\MAIN.OBJ|C:\USERS\LANCE\DOCUMENTS\C++\SDL-TEMPLATE-MASTER\SDLTEMPLATE\SDLTEMPLATE\X64\DEBUG\PLAYER.OBJ|C:\USERS\LANCE\DOCUMENTS\C++\SDL-TEMPLATE-MASTER\SDLTEMPLATE\SDLTEMPLATE\X64\DEBUG\SCENE.OBJ|C:\USERS\LANCE\DOCUMENTS\C++\SDL-TEMPLATE-MASTER\SDLTEMPLATE\SDLTEMPLATE\X64\DEBUG\SOUNDMANAGER.OBJ|C:\USERS\LANCE\DOCUMENTS\C++\SDL-TEMPLATE-MASTER\SDLTEMPLATE\SDLTEMPLATE\X64\DEBUG\TEXT.OBJ|C:\USERS\LANCE\DOCUMENTS\C++\SDL-TEMPLATE-MASTER\SDLTEMPLATE\SDLTEMPLATE\X64\DEBUG\UTIL.OBJ
/OUT:"C:\USERS\LANCE\DOCUMENTS\C++\SDL-TEMPLATE-MASTER\SDLTEMPLATE\X64\DEBUG\SDL-TEMPLATE.EXE" /INCREMENTAL /ILK:"X64\DEBUG\SDL-TEMPLATE.ILK" /NOLOGO /LIBPATH:LIB\X64 SDL2.LIB SDL2MAIN.LIB SDL2_IMAGE.LIB SDL2_MIXER.LIB KERNEL32.LIB USER32.LIB GDI32.LIB WINSPOOL.LIB COMDLG32.LIB ADVAPI32.LIB SHELL32.LIB OLE32.LIB OLEAUT32.LIB UUID.LIB ODBC32.LIB ODBCCP32.LIB /MANIFEST /MANIFESTUAC:"level='asInvoker' uiAccess='false'" /manifest:embed /DEBUG /PDB:"C:\USERS\LANCE\DOCUMENTS\C++\SDL-TEMPLATE-MASTER\SDLTEMPLATE\X64\DEBUG\SDL-TEMPLATE.PDB" /SUBSYSTEM:CONSOLE /TLBID:1 /DYNAMICBASE /NXCOMPAT /IMPLIB:"C:\USERS\LANCE\DOCUMENTS\C++\SDL-TEMPLATE-MASTER\SDLTEMPLATE\X64\DEBUG\SDL-TEMPLATE.LIB" /MACHINE:X64 X64\DEBUG\BULLET.OBJ
X64\DEBUG\DRAW.OBJ
X64\DEBUG\ENEMY.OBJ
X64\DEBUG\GAMEOBJECT.OBJ
X64\DEBUG\GAMESCENE.OBJ
X64\DEBUG\INIT.OBJ
X64\DEBUG\INPUT.OBJ
X64\DEBUG\MAIN.OBJ
X64\DEBUG\PLAYER.OBJ
X64\DEBUG\SCENE.OBJ
X64\DEBUG\SOUNDMANAGER.OBJ
X64\DEBUG\TEXT.OBJ
X64\DEBUG\UTIL.OBJ
^C:\USERS\LANCE\DOCUMENTS\SY21T1-BP3-OTIE3-CHING-LANCE-CHRISTIAN\EX\EX 1\SDLTEMPLATE\X64\DEBUG\BULLET.OBJ|C:\USERS\LANCE\DOCUMENTS\SY21T1-BP3-OTIE3-CHING-LANCE-CHRISTIAN\EX\EX 1\SDLTEMPLATE\X64\DEBUG\DRAW.OBJ|C:\USERS\LANCE\DOCUMENTS\SY21T1-BP3-OTIE3-CHING-LANCE-CHRISTIAN\EX\EX 1\SDLTEMPLATE\X64\DEBUG\ENEMY.OBJ|C:\USERS\LANCE\DOCUMENTS\SY21T1-BP3-OTIE3-CHING-LANCE-CHRISTIAN\EX\EX 1\SDLTEMPLATE\X64\DEBUG\GAMEOBJECT.OBJ|C:\USERS\LANCE\DOCUMENTS\SY21T1-BP3-OTIE3-CHING-LANCE-CHRISTIAN\EX\EX 1\SDLTEMPLATE\X64\DEBUG\GAMESCENE.OBJ|C:\USERS\LANCE\DOCUMENTS\SY21T1-BP3-OTIE3-CHING-LANCE-CHRISTIAN\EX\EX 1\SDLTEMPLATE\X64\DEBUG\INIT.OBJ|C:\USERS\LANCE\DOCUMENTS\SY21T1-BP3-OTIE3-CHING-LANCE-CHRISTIAN\EX\EX 1\SDLTEMPLATE\X64\DEBUG\INPUT.OBJ|C:\USERS\LANCE\DOCUMENTS\SY21T1-BP3-OTIE3-CHING-LANCE-CHRISTIAN\EX\EX 1\SDLTEMPLATE\X64\DEBUG\MAIN.OBJ|C:\USERS\LANCE\DOCUMENTS\SY21T1-BP3-OTIE3-CHING-LANCE-CHRISTIAN\EX\EX 1\SDLTEMPLATE\X64\DEBUG\PLAYER.OBJ|C:\USERS\LANCE\DOCUMENTS\SY21T1-BP3-OTIE3-CHING-LANCE-CHRISTIAN\EX\EX 1\SDLTEMPLATE\X64\DEBUG\SCENE.OBJ|C:\USERS\LANCE\DOCUMENTS\SY21T1-BP3-OTIE3-CHING-LANCE-CHRISTIAN\EX\EX 1\SDLTEMPLATE\X64\DEBUG\SOUNDMANAGER.OBJ|C:\USERS\LANCE\DOCUMENTS\SY21T1-BP3-OTIE3-CHING-LANCE-CHRISTIAN\EX\EX 1\SDLTEMPLATE\X64\DEBUG\TEXT.OBJ|C:\USERS\LANCE\DOCUMENTS\SY21T1-BP3-OTIE3-CHING-LANCE-CHRISTIAN\EX\EX 1\SDLTEMPLATE\X64\DEBUG\UTIL.OBJ
/OUT:"C:\USERS\LANCE\DOCUMENTS\SY21T1-BP3-OTIE3-CHING-LANCE-CHRISTIAN\EX\EX 1\X64\DEBUG\SDL-TEMPLATE.EXE" /INCREMENTAL /ILK:"X64\DEBUG\SDL-TEMPLATE.ILK" /NOLOGO /LIBPATH:LIB\X64 SDL2.LIB SDL2MAIN.LIB SDL2_IMAGE.LIB SDL2_MIXER.LIB KERNEL32.LIB USER32.LIB GDI32.LIB WINSPOOL.LIB COMDLG32.LIB ADVAPI32.LIB SHELL32.LIB OLE32.LIB OLEAUT32.LIB UUID.LIB ODBC32.LIB ODBCCP32.LIB /MANIFEST /MANIFESTUAC:"level='asInvoker' uiAccess='false'" /manifest:embed /DEBUG /PDB:"C:\USERS\LANCE\DOCUMENTS\SY21T1-BP3-OTIE3-CHING-LANCE-CHRISTIAN\EX\EX 1\X64\DEBUG\SDL-TEMPLATE.PDB" /SUBSYSTEM:CONSOLE /TLBID:1 /DYNAMICBASE /NXCOMPAT /IMPLIB:"C:\USERS\LANCE\DOCUMENTS\SY21T1-BP3-OTIE3-CHING-LANCE-CHRISTIAN\EX\EX 1\X64\DEBUG\SDL-TEMPLATE.LIB" /MACHINE:X64 X64\DEBUG\BULLET.OBJ
X64\DEBUG\DRAW.OBJ
X64\DEBUG\ENEMY.OBJ
X64\DEBUG\GAMEOBJECT.OBJ
X64\DEBUG\GAMESCENE.OBJ
X64\DEBUG\INIT.OBJ
X64\DEBUG\INPUT.OBJ
X64\DEBUG\MAIN.OBJ
X64\DEBUG\PLAYER.OBJ
X64\DEBUG\SCENE.OBJ
X64\DEBUG\SOUNDMANAGER.OBJ
X64\DEBUG\TEXT.OBJ
X64\DEBUG\UTIL.OBJ
^C:\USERS\LANCE\DOCUMENTS\C++\COLLISION\EX 1\SDLTEMPLATE\X64\DEBUG\BULLET.OBJ|C:\USERS\LANCE\DOCUMENTS\C++\COLLISION\EX 1\SDLTEMPLATE\X64\DEBUG\DRAW.OBJ|C:\USERS\LANCE\DOCUMENTS\C++\COLLISION\EX 1\SDLTEMPLATE\X64\DEBUG\ENEMY.OBJ|C:\USERS\LANCE\DOCUMENTS\C++\COLLISION\EX 1\SDLTEMPLATE\X64\DEBUG\GAMEOBJECT.OBJ|C:\USERS\LANCE\DOCUMENTS\C++\COLLISION\EX 1\SDLTEMPLATE\X64\DEBUG\GAMESCENE.OBJ|C:\USERS\LANCE\DOCUMENTS\C++\COLLISION\EX 1\SDLTEMPLATE\X64\DEBUG\INIT.OBJ|C:\USERS\LANCE\DOCUMENTS\C++\COLLISION\EX 1\SDLTEMPLATE\X64\DEBUG\INPUT.OBJ|C:\USERS\LANCE\DOCUMENTS\C++\COLLISION\EX 1\SDLTEMPLATE\X64\DEBUG\MAIN.OBJ|C:\USERS\LANCE\DOCUMENTS\C++\COLLISION\EX 1\SDLTEMPLATE\X64\DEBUG\PLAYER.OBJ|C:\USERS\LANCE\DOCUMENTS\C++\COLLISION\EX 1\SDLTEMPLATE\X64\DEBUG\SCENE.OBJ|C:\USERS\LANCE\DOCUMENTS\C++\COLLISION\EX 1\SDLTEMPLATE\X64\DEBUG\SOUNDMANAGER.OBJ|C:\USERS\LANCE\DOCUMENTS\C++\COLLISION\EX 1\SDLTEMPLATE\X64\DEBUG\TEXT.OBJ|C:\USERS\LANCE\DOCUMENTS\C++\COLLISION\EX 1\SDLTEMPLATE\X64\DEBUG\UTIL.OBJ
/OUT:"C:\USERS\LANCE\DOCUMENTS\C++\COLLISION\EX 1\X64\DEBUG\SDL-TEMPLATE.EXE" /INCREMENTAL /ILK:"X64\DEBUG\SDL-TEMPLATE.ILK" /NOLOGO /LIBPATH:LIB\X64 SDL2.LIB SDL2MAIN.LIB SDL2_IMAGE.LIB SDL2_MIXER.LIB KERNEL32.LIB USER32.LIB GDI32.LIB WINSPOOL.LIB COMDLG32.LIB ADVAPI32.LIB SHELL32.LIB OLE32.LIB OLEAUT32.LIB UUID.LIB ODBC32.LIB ODBCCP32.LIB /MANIFEST /MANIFESTUAC:"level='asInvoker' uiAccess='false'" /manifest:embed /DEBUG /PDB:"C:\USERS\LANCE\DOCUMENTS\C++\COLLISION\EX 1\X64\DEBUG\SDL-TEMPLATE.PDB" /SUBSYSTEM:CONSOLE /TLBID:1 /DYNAMICBASE /NXCOMPAT /IMPLIB:"C:\USERS\LANCE\DOCUMENTS\C++\COLLISION\EX 1\X64\DEBUG\SDL-TEMPLATE.LIB" /MACHINE:X64 X64\DEBUG\BULLET.OBJ
X64\DEBUG\DRAW.OBJ
X64\DEBUG\ENEMY.OBJ
X64\DEBUG\GAMEOBJECT.OBJ
X64\DEBUG\GAMESCENE.OBJ
X64\DEBUG\INIT.OBJ
X64\DEBUG\INPUT.OBJ
X64\DEBUG\MAIN.OBJ
X64\DEBUG\PLAYER.OBJ
X64\DEBUG\SCENE.OBJ
X64\DEBUG\SOUNDMANAGER.OBJ
X64\DEBUG\TEXT.OBJ
X64\DEBUG\UTIL.OBJ
^C:\USERS\LANCE\DOCUMENTS\C++\COLLISION\HUD AND FONTS\SDLTEMPLATE\X64\DEBUG\BULLET.OBJ|C:\USERS\LANCE\DOCUMENTS\C++\COLLISION\HUD AND FONTS\SDLTEMPLATE\X64\DEBUG\DRAW.OBJ|C:\USERS\LANCE\DOCUMENTS\C++\COLLISION\HUD AND FONTS\SDLTEMPLATE\X64\DEBUG\ENEMY.OBJ|C:\USERS\LANCE\DOCUMENTS\C++\COLLISION\HUD AND FONTS\SDLTEMPLATE\X64\DEBUG\GAMEOBJECT.OBJ|C:\USERS\LANCE\DOCUMENTS\C++\COLLISION\HUD AND FONTS\SDLTEMPLATE\X64\DEBUG\GAMESCENE.OBJ|C:\USERS\LANCE\DOCUMENTS\C++\COLLISION\HUD AND FONTS\SDLTEMPLATE\X64\DEBUG\INIT.OBJ|C:\USERS\LANCE\DOCUMENTS\C++\COLLISION\HUD AND FONTS\SDLTEMPLATE\X64\DEBUG\INPUT.OBJ|C:\USERS\LANCE\DOCUMENTS\C++\COLLISION\HUD AND FONTS\SDLTEMPLATE\X64\DEBUG\MAIN.OBJ|C:\USERS\LANCE\DOCUMENTS\C++\COLLISION\HUD AND FONTS\SDLTEMPLATE\X64\DEBUG\PLAYER.OBJ|C:\USERS\LANCE\DOCUMENTS\C++\COLLISION\HUD AND FONTS\SDLTEMPLATE\X64\DEBUG\SCENE.OBJ|C:\USERS\LANCE\DOCUMENTS\C++\COLLISION\HUD AND FONTS\SDLTEMPLATE\X64\DEBUG\SOUNDMANAGER.OBJ|C:\USERS\LANCE\DOCUMENTS\C++\COLLISION\HUD AND FONTS\SDLTEMPLATE\X64\DEBUG\TEXT.OBJ|C:\USERS\LANCE\DOCUMENTS\C++\COLLISION\HUD AND FONTS\SDLTEMPLATE\X64\DEBUG\UTIL.OBJ
/OUT:"C:\USERS\LANCE\DOCUMENTS\C++\COLLISION\HUD AND FONTS\X64\DEBUG\SDL-TEMPLATE.EXE" /INCREMENTAL /ILK:"X64\DEBUG\SDL-TEMPLATE.ILK" /NOLOGO /LIBPATH:LIB\X64 SDL2.LIB SDL2MAIN.LIB SDL2_IMAGE.LIB SDL2_MIXER.LIB KERNEL32.LIB USER32.LIB GDI32.LIB WINSPOOL.LIB COMDLG32.LIB ADVAPI32.LIB SHELL32.LIB OLE32.LIB OLEAUT32.LIB UUID.LIB ODBC32.LIB ODBCCP32.LIB /MANIFEST /MANIFESTUAC:"level='asInvoker' uiAccess='false'" /manifest:embed /DEBUG /PDB:"C:\USERS\LANCE\DOCUMENTS\C++\COLLISION\HUD AND FONTS\X64\DEBUG\SDL-TEMPLATE.PDB" /SUBSYSTEM:CONSOLE /TLBID:1 /DYNAMICBASE /NXCOMPAT /IMPLIB:"C:\USERS\LANCE\DOCUMENTS\C++\COLLISION\HUD AND FONTS\X64\DEBUG\SDL-TEMPLATE.LIB" /MACHINE:X64 X64\DEBUG\BULLET.OBJ
X64\DEBUG\DRAW.OBJ
X64\DEBUG\ENEMY.OBJ
X64\DEBUG\GAMEOBJECT.OBJ
X64\DEBUG\GAMESCENE.OBJ
X64\DEBUG\INIT.OBJ
X64\DEBUG\INPUT.OBJ
X64\DEBUG\MAIN.OBJ
X64\DEBUG\PLAYER.OBJ
X64\DEBUG\SCENE.OBJ
X64\DEBUG\SOUNDMANAGER.OBJ
X64\DEBUG\TEXT.OBJ
X64\DEBUG\UTIL.OBJ
^C:\USERS\LANCE\ONEDRIVE\DOCUMENTS\C++\COLLISION\HUD AND FONTS\SDLTEMPLATE\X64\DEBUG\BULLET.OBJ|C:\USERS\LANCE\ONEDRIVE\DOCUMENTS\C++\COLLISION\HUD AND FONTS\SDLTEMPLATE\X64\DEBUG\DRAW.OBJ|C:\USERS\LANCE\ONEDRIVE\DOCUMENTS\C++\COLLISION\HUD AND FONTS\SDLTEMPLATE\X64\DEBUG\ENEMY.OBJ|C:\USERS\LANCE\ONEDRIVE\DOCUMENTS\C++\COLLISION\HUD AND FONTS\SDLTEMPLATE\X64\DEBUG\GAMEOBJECT.OBJ|C:\USERS\LANCE\ONEDRIVE\DOCUMENTS\C++\COLLISION\HUD AND FONTS\SDLTEMPLATE\X64\DEBUG\GAMESCENE.OBJ|C:\USERS\LANCE\ONEDRIVE\DOCUMENTS\C++\COLLISION\HUD AND FONTS\SDLTEMPLATE\X64\DEBUG\INIT.OBJ|C:\USERS\LANCE\ONEDRIVE\DOCUMENTS\C++\COLLISION\HUD AND FONTS\SDLTEMPLATE\X64\DEBUG\INPUT.OBJ|C:\USERS\LANCE\ONEDRIVE\DOCUMENTS\C++\COLLISION\HUD AND FONTS\SDLTEMPLATE\X64\DEBUG\MAIN.OBJ|C:\USERS\LANCE\ONEDRIVE\DOCUMENTS\C++\COLLISION\HUD AND FONTS\SDLTEMPLATE\X64\DEBUG\PLAYER.OBJ|C:\USERS\LANCE\ONEDRIVE\DOCUMENTS\C++\COLLISION\HUD AND FONTS\SDLTEMPLATE\X64\DEBUG\SCENE.OBJ|C:\USERS\LANCE\ONEDRIVE\DOCUMENTS\C++\COLLISION\HUD AND FONTS\SDLTEMPLATE\X64\DEBUG\SOUNDMANAGER.OBJ|C:\USERS\LANCE\ONEDRIVE\DOCUMENTS\C++\COLLISION\HUD AND FONTS\SDLTEMPLATE\X64\DEBUG\TEXT.OBJ|C:\USERS\LANCE\ONEDRIVE\DOCUMENTS\C++\COLLISION\HUD AND FONTS\SDLTEMPLATE\X64\DEBUG\UTIL.OBJ
/OUT:"C:\USERS\LANCE\ONEDRIVE\DOCUMENTS\C++\COLLISION\HUD AND FONTS\X64\DEBUG\SDL-TEMPLATE.EXE" /INCREMENTAL /ILK:"X64\DEBUG\SDL-TEMPLATE.ILK" /NOLOGO /LIBPATH:LIB\X64 SDL2.LIB SDL2MAIN.LIB SDL2_IMAGE.LIB SDL2_MIXER.LIB KERNEL32.LIB USER32.LIB GDI32.LIB WINSPOOL.LIB COMDLG32.LIB ADVAPI32.LIB SHELL32.LIB OLE32.LIB OLEAUT32.LIB UUID.LIB ODBC32.LIB ODBCCP32.LIB /MANIFEST /MANIFESTUAC:"level='asInvoker' uiAccess='false'" /manifest:embed /DEBUG /PDB:"C:\USERS\LANCE\ONEDRIVE\DOCUMENTS\C++\COLLISION\HUD AND FONTS\X64\DEBUG\SDL-TEMPLATE.PDB" /SUBSYSTEM:CONSOLE /TLBID:1 /DYNAMICBASE /NXCOMPAT /IMPLIB:"C:\USERS\LANCE\ONEDRIVE\DOCUMENTS\C++\COLLISION\HUD AND FONTS\X64\DEBUG\SDL-TEMPLATE.LIB" /MACHINE:X64 X64\DEBUG\BULLET.OBJ
X64\DEBUG\DRAW.OBJ
X64\DEBUG\ENEMY.OBJ
X64\DEBUG\GAMEOBJECT.OBJ
X64\DEBUG\GAMESCENE.OBJ
X64\DEBUG\INIT.OBJ
X64\DEBUG\INPUT.OBJ
X64\DEBUG\MAIN.OBJ
X64\DEBUG\PLAYER.OBJ
X64\DEBUG\SCENE.OBJ
X64\DEBUG\SOUNDMANAGER.OBJ
X64\DEBUG\TEXT.OBJ
X64\DEBUG\UTIL.OBJ
^C:\USERS\LANCE\ONEDRIVE\DOCUMENTS\C++\COLLISION\ROTATE & POW\SDLTEMPLATE\X64\DEBUG\BULLET.OBJ|C:\USERS\LANCE\ONEDRIVE\DOCUMENTS\C++\COLLISION\ROTATE & POW\SDLTEMPLATE\X64\DEBUG\DRAW.OBJ|C:\USERS\LANCE\ONEDRIVE\DOCUMENTS\C++\COLLISION\ROTATE & POW\SDLTEMPLATE\X64\DEBUG\ENEMY.OBJ|C:\USERS\LANCE\ONEDRIVE\DOCUMENTS\C++\COLLISION\ROTATE & POW\SDLTEMPLATE\X64\DEBUG\GAMEOBJECT.OBJ|C:\USERS\LANCE\ONEDRIVE\DOCUMENTS\C++\COLLISION\ROTATE & POW\SDLTEMPLATE\X64\DEBUG\GAMESCENE.OBJ|C:\USERS\LANCE\ONEDRIVE\DOCUMENTS\C++\COLLISION\ROTATE & POW\SDLTEMPLATE\X64\DEBUG\INIT.OBJ|C:\USERS\LANCE\ONEDRIVE\DOCUMENTS\C++\COLLISION\ROTATE & POW\SDLTEMPLATE\X64\DEBUG\INPUT.OBJ|C:\USERS\LANCE\ONEDRIVE\DOCUMENTS\C++\COLLISION\ROTATE & POW\SDLTEMPLATE\X64\DEBUG\MAIN.OBJ|C:\USERS\LANCE\ONEDRIVE\DOCUMENTS\C++\COLLISION\ROTATE & POW\SDLTEMPLATE\X64\DEBUG\PLAYER.OBJ|C:\USERS\LANCE\ONEDRIVE\DOCUMENTS\C++\COLLISION\ROTATE & POW\SDLTEMPLATE\X64\DEBUG\POWERUP.OBJ|C:\USERS\LANCE\ONEDRIVE\DOCUMENTS\C++\COLLISION\ROTATE & POW\SDLTEMPLATE\X64\DEBUG\SCENE.OBJ|C:\USERS\LANCE\ONEDRIVE\DOCUMENTS\C++\COLLISION\ROTATE & POW\SDLTEMPLATE\X64\DEBUG\SOUNDMANAGER.OBJ|C:\USERS\LANCE\ONEDRIVE\DOCUMENTS\C++\COLLISION\ROTATE & POW\SDLTEMPLATE\X64\DEBUG\TEXT.OBJ|C:\USERS\LANCE\ONEDRIVE\DOCUMENTS\C++\COLLISION\ROTATE & POW\SDLTEMPLATE\X64\DEBUG\UTIL.OBJ
/OUT:"C:\USERS\LANCE\ONEDRIVE\DOCUMENTS\C++\COLLISION\ROTATE & POW\X64\DEBUG\SDL-TEMPLATE.EXE" /INCREMENTAL /ILK:"X64\DEBUG\SDL-TEMPLATE.ILK" /NOLOGO /LIBPATH:LIB\X64 SDL2.LIB SDL2MAIN.LIB SDL2_IMAGE.LIB SDL2_MIXER.LIB KERNEL32.LIB USER32.LIB GDI32.LIB WINSPOOL.LIB COMDLG32.LIB ADVAPI32.LIB SHELL32.LIB OLE32.LIB OLEAUT32.LIB UUID.LIB ODBC32.LIB ODBCCP32.LIB /MANIFEST /MANIFESTUAC:"level='asInvoker' uiAccess='false'" /manifest:embed /DEBUG /PDB:"C:\USERS\LANCE\ONEDRIVE\DOCUMENTS\C++\COLLISION\ROTATE & POW\X64\DEBUG\SDL-TEMPLATE.PDB" /SUBSYSTEM:CONSOLE /TLBID:1 /DYNAMICBASE /NXCOMPAT /IMPLIB:"C:\USERS\LANCE\ONEDRIVE\DOCUMENTS\C++\COLLISION\ROTATE & POW\X64\DEBUG\SDL-TEMPLATE.LIB" /MACHINE:X64 X64\DEBUG\BULLET.OBJ
X64\DEBUG\DRAW.OBJ
X64\DEBUG\ENEMY.OBJ
X64\DEBUG\GAMEOBJECT.OBJ
X64\DEBUG\GAMESCENE.OBJ
X64\DEBUG\INIT.OBJ
X64\DEBUG\INPUT.OBJ
X64\DEBUG\MAIN.OBJ
X64\DEBUG\PLAYER.OBJ
X64\DEBUG\POWERUP.OBJ
X64\DEBUG\SCENE.OBJ
X64\DEBUG\SOUNDMANAGER.OBJ
X64\DEBUG\TEXT.OBJ
X64\DEBUG\UTIL.OBJ
^C:\USERS\VIRGILIO CHING\DOCUMENTS\V1ROTATE & POW\SDLTEMPLATE\X64\DEBUG\BULLET.OBJ|C:\USERS\VIRGILIO CHING\DOCUMENTS\V1ROTATE & POW\SDLTEMPLATE\X64\DEBUG\DRAW.OBJ|C:\USERS\VIRGILIO CHING\DOCUMENTS\V1ROTATE & POW\SDLTEMPLATE\X64\DEBUG\ENEMY.OBJ|C:\USERS\VIRGILIO CHING\DOCUMENTS\V1ROTATE & POW\SDLTEMPLATE\X64\DEBUG\GAMEOBJECT.OBJ|C:\USERS\VIRGILIO CHING\DOCUMENTS\V1ROTATE & POW\SDLTEMPLATE\X64\DEBUG\GAMESCENE.OBJ|C:\USERS\VIRGILIO CHING\DOCUMENTS\V1ROTATE & POW\SDLTEMPLATE\X64\DEBUG\INIT.OBJ|C:\USERS\VIRGILIO CHING\DOCUMENTS\V1ROTATE & POW\SDLTEMPLATE\X64\DEBUG\INPUT.OBJ|C:\USERS\VIRGILIO CHING\DOCUMENTS\V1ROTATE & POW\SDLTEMPLATE\X64\DEBUG\L1ENEMY.OBJ|C:\USERS\VIRGILIO CHING\DOCUMENTS\V1ROTATE & POW\SDLTEMPLATE\X64\DEBUG\LEVELUPENEMY.OBJ|C:\USERS\VIRGILIO CHING\DOCUMENTS\V1ROTATE & POW\SDLTEMPLATE\X64\DEBUG\MAIN.OBJ|C:\USERS\VIRGILIO CHING\DOCUMENTS\V1ROTATE & POW\SDLTEMPLATE\X64\DEBUG\MASTERENEMY.OBJ|C:\USERS\VIRGILIO CHING\DOCUMENTS\V1ROTATE & POW\SDLTEMPLATE\X64\DEBUG\PLAYER.OBJ|C:\USERS\VIRGILIO CHING\DOCUMENTS\V1ROTATE & POW\SDLTEMPLATE\X64\DEBUG\POWERUP.OBJ|C:\USERS\VIRGILIO CHING\DOCUMENTS\V1ROTATE & POW\SDLTEMPLATE\X64\DEBUG\SCENE.OBJ|C:\USERS\VIRGILIO CHING\DOCUMENTS\V1ROTATE & POW\SDLTEMPLATE\X64\DEBUG\SOUNDMANAGER.OBJ|C:\USERS\VIRGILIO CHING\DOCUMENTS\V1ROTATE & POW\SDLTEMPLATE\X64\DEBUG\TEXT.OBJ|C:\USERS\VIRGILIO CHING\DOCUMENTS\V1ROTATE & POW\SDLTEMPLATE\X64\DEBUG\UTIL.OBJ
/OUT:"C:\USERS\VIRGILIO CHING\DOCUMENTS\V1ROTATE & POW\X64\DEBUG\SDL-TEMPLATE.EXE" /INCREMENTAL /ILK:"X64\DEBUG\SDL-TEMPLATE.ILK" /NOLOGO /LIBPATH:LIB\X64 SDL2.LIB SDL2MAIN.LIB SDL2_IMAGE.LIB SDL2_MIXER.LIB KERNEL32.LIB USER32.LIB GDI32.LIB WINSPOOL.LIB COMDLG32.LIB ADVAPI32.LIB SHELL32.LIB OLE32.LIB OLEAUT32.LIB UUID.LIB ODBC32.LIB ODBCCP32.LIB /MANIFEST /MANIFESTUAC:"level='asInvoker' uiAccess='false'" /manifest:embed /DEBUG /PDB:"C:\USERS\VIRGILIO CHING\DOCUMENTS\V1ROTATE & POW\X64\DEBUG\SDL-TEMPLATE.PDB" /SUBSYSTEM:CONSOLE /TLBID:1 /DYNAMICBASE /NXCOMPAT /IMPLIB:"C:\USERS\VIRGILIO CHING\DOCUMENTS\V1ROTATE & POW\X64\DEBUG\SDL-TEMPLATE.LIB" /MACHINE:X64 X64\DEBUG\BULLET.OBJ
X64\DEBUG\DRAW.OBJ
X64\DEBUG\ENEMY.OBJ
X64\DEBUG\GAMEOBJECT.OBJ
X64\DEBUG\GAMESCENE.OBJ
X64\DEBUG\INIT.OBJ
X64\DEBUG\INPUT.OBJ
X64\DEBUG\L1ENEMY.OBJ
X64\DEBUG\LEVELUPENEMY.OBJ
X64\DEBUG\MAIN.OBJ
X64\DEBUG\MASTERENEMY.OBJ
X64\DEBUG\PLAYER.OBJ
X64\DEBUG\POWERUP.OBJ
X64\DEBUG\SCENE.OBJ
X64\DEBUG\SOUNDMANAGER.OBJ
X64\DEBUG\TEXT.OBJ
X64\DEBUG\UTIL.OBJ
^C:\USERS\LANCE\ONEDRIVE\DOCUMENTS\SY21T1-BP3-OTIE3-CHING-LANCE-CHRISTIAN\ROTATE&POW\SDLTEMPLATE\X64\DEBUG\BULLET.OBJ|C:\USERS\LANCE\ONEDRIVE\DOCUMENTS\SY21T1-BP3-OTIE3-CHING-LANCE-CHRISTIAN\ROTATE&POW\SDLTEMPLATE\X64\DEBUG\DRAW.OBJ|C:\USERS\LANCE\ONEDRIVE\DOCUMENTS\SY21T1-BP3-OTIE3-CHING-LANCE-CHRISTIAN\ROTATE&POW\SDLTEMPLATE\X64\DEBUG\ENEMY.OBJ|C:\USERS\LANCE\ONEDRIVE\DOCUMENTS\SY21T1-BP3-OTIE3-CHING-LANCE-CHRISTIAN\ROTATE&POW\SDLTEMPLATE\X64\DEBUG\GAMEOBJECT.OBJ|C:\USERS\LANCE\ONEDRIVE\DOCUMENTS\SY21T1-BP3-OTIE3-CHING-LANCE-CHRISTIAN\ROTATE&POW\SDLTEMPLATE\X64\DEBUG\GAMESCENE.OBJ|C:\USERS\LANCE\ONEDRIVE\DOCUMENTS\SY21T1-BP3-OTIE3-CHING-LANCE-CHRISTIAN\ROTATE&POW\SDLTEMPLATE\X64\DEBUG\INIT.OBJ|C:\USERS\LANCE\ONEDRIVE\DOCUMENTS\SY21T1-BP3-OTIE3-CHING-LANCE-CHRISTIAN\ROTATE&POW\SDLTEMPLATE\X64\DEBUG\INPUT.OBJ|C:\USERS\LANCE\ONEDRIVE\DOCUMENTS\SY21T1-BP3-OTIE3-CHING-LANCE-CHRISTIAN\ROTATE&POW\SDLTEMPLATE\X64\DEBUG\L1ENEMY.OBJ|C:\USERS\LANCE\ONEDRIVE\DOCUMENTS\SY21T1-BP3-OTIE3-CHING-LANCE-CHRISTIAN\ROTATE&POW\SDLTEMPLATE\X64\DEBUG\LEVELUPENEMY.OBJ|C:\USERS\LANCE\ONEDRIVE\DOCUMENTS\SY21T1-BP3-OTIE3-CHING-LANCE-CHRISTIAN\ROTATE&POW\SDLTEMPLATE\X64\DEBUG\MAIN.OBJ|C:\USERS\LANCE\ONEDRIVE\DOCUMENTS\SY21T1-BP3-OTIE3-CHING-LANCE-CHRISTIAN\ROTATE&POW\SDLTEMPLATE\X64\DEBUG\MASTERENEMY.OBJ|C:\USERS\LANCE\ONEDRIVE\DOCUMENTS\SY21T1-BP3-OTIE3-CHING-LANCE-CHRISTIAN\ROTATE&POW\SDLTEMPLATE\X64\DEBUG\PLAYER.OBJ|C:\USERS\LANCE\ONEDRIVE\DOCUMENTS\SY21T1-BP3-OTIE3-CHING-LANCE-CHRISTIAN\ROTATE&POW\SDLTEMPLATE\X64\DEBUG\POWERUP.OBJ|C:\USERS\LANCE\ONEDRIVE\DOCUMENTS\SY21T1-BP3-OTIE3-CHING-LANCE-CHRISTIAN\ROTATE&POW\SDLTEMPLATE\X64\DEBUG\SCENE.OBJ|C:\USERS\LANCE\ONEDRIVE\DOCUMENTS\SY21T1-BP3-OTIE3-CHING-LANCE-CHRISTIAN\ROTATE&POW\SDLTEMPLATE\X64\DEBUG\SOUNDMANAGER.OBJ|C:\USERS\LANCE\ONEDRIVE\DOCUMENTS\SY21T1-BP3-OTIE3-CHING-LANCE-CHRISTIAN\ROTATE&POW\SDLTEMPLATE\X64\DEBUG\TEXT.OBJ|C:\USERS\LANCE\ONEDRIVE\DOCUMENTS\SY21T1-BP3-OTIE3-CHING-LANCE-CHRISTIAN\ROTATE&POW\SDLTEMPLATE\X64\DEBUG\UTIL.OBJ
/OUT:"C:\USERS\LANCE\ONEDRIVE\DOCUMENTS\SY21T1-BP3-OTIE3-CHING-LANCE-CHRISTIAN\ROTATE&POW\X64\DEBUG\SDL-TEMPLATE.EXE" /INCREMENTAL /ILK:"X64\DEBUG\SDL-TEMPLATE.ILK" /NOLOGO /LIBPATH:LIB\X64 SDL2.LIB SDL2MAIN.LIB SDL2_IMAGE.LIB SDL2_MIXER.LIB KERNEL32.LIB USER32.LIB GDI32.LIB WINSPOOL.LIB COMDLG32.LIB ADVAPI32.LIB SHELL32.LIB OLE32.LIB OLEAUT32.LIB UUID.LIB ODBC32.LIB ODBCCP32.LIB /MANIFEST /MANIFESTUAC:"level='asInvoker' uiAccess='false'" /manifest:embed /DEBUG /PDB:"C:\USERS\LANCE\ONEDRIVE\DOCUMENTS\SY21T1-BP3-OTIE3-CHING-LANCE-CHRISTIAN\ROTATE&POW\X64\DEBUG\SDL-TEMPLATE.PDB" /SUBSYSTEM:CONSOLE /TLBID:1 /DYNAMICBASE /NXCOMPAT /IMPLIB:"C:\USERS\LANCE\ONEDRIVE\DOCUMENTS\SY21T1-BP3-OTIE3-CHING-LANCE-CHRISTIAN\ROTATE&POW\X64\DEBUG\SDL-TEMPLATE.LIB" /MACHINE:X64 X64\DEBUG\BULLET.OBJ
X64\DEBUG\DRAW.OBJ
X64\DEBUG\ENEMY.OBJ
X64\DEBUG\GAMEOBJECT.OBJ
X64\DEBUG\GAMESCENE.OBJ
X64\DEBUG\INIT.OBJ
X64\DEBUG\INPUT.OBJ
X64\DEBUG\L1ENEMY.OBJ
X64\DEBUG\LEVELUPENEMY.OBJ
X64\DEBUG\MAIN.OBJ
X64\DEBUG\MASTERENEMY.OBJ
X64\DEBUG\PLAYER.OBJ
X64\DEBUG\POWERUP.OBJ
X64\DEBUG\SCENE.OBJ
X64\DEBUG\SOUNDMANAGER.OBJ
X64\DEBUG\TEXT.OBJ
X64\DEBUG\UTIL.OBJ
^C:\USERS\LANCE\ONEDRIVE\DOCUMENTS\C++\COLLISION\ROTATE & POW\SDLTEMPLATE\X64\DEBUG\BULLET.OBJ|C:\USERS\LANCE\ONEDRIVE\DOCUMENTS\C++\COLLISION\ROTATE & POW\SDLTEMPLATE\X64\DEBUG\DRAW.OBJ|C:\USERS\LANCE\ONEDRIVE\DOCUMENTS\C++\COLLISION\ROTATE & POW\SDLTEMPLATE\X64\DEBUG\ENEMY.OBJ|C:\USERS\LANCE\ONEDRIVE\DOCUMENTS\C++\COLLISION\ROTATE & POW\SDLTEMPLATE\X64\DEBUG\GAMEOBJECT.OBJ|C:\USERS\LANCE\ONEDRIVE\DOCUMENTS\C++\COLLISION\ROTATE & POW\SDLTEMPLATE\X64\DEBUG\GAMESCENE.OBJ|C:\USERS\LANCE\ONEDRIVE\DOCUMENTS\C++\COLLISION\ROTATE & POW\SDLTEMPLATE\X64\DEBUG\INIT.OBJ|C:\USERS\LANCE\ONEDRIVE\DOCUMENTS\C++\COLLISION\ROTATE & POW\SDLTEMPLATE\X64\DEBUG\INPUT.OBJ|C:\USERS\LANCE\ONEDRIVE\DOCUMENTS\C++\COLLISION\ROTATE & POW\SDLTEMPLATE\X64\DEBUG\L1ENEMY.OBJ|C:\USERS\LANCE\ONEDRIVE\DOCUMENTS\C++\COLLISION\ROTATE & POW\SDLTEMPLATE\X64\DEBUG\LEVELUPENEMY.OBJ|C:\USERS\LANCE\ONEDRIVE\DOCUMENTS\C++\COLLISION\ROTATE & POW\SDLTEMPLATE\X64\DEBUG\MAIN.OBJ|C:\USERS\LANCE\ONEDRIVE\DOCUMENTS\C++\COLLISION\ROTATE & POW\SDLTEMPLATE\X64\DEBUG\MASTERENEMY.OBJ|C:\USERS\LANCE\ONEDRIVE\DOCUMENTS\C++\COLLISION\ROTATE & POW\SDLTEMPLATE\X64\DEBUG\PLAYER.OBJ|C:\USERS\LANCE\ONEDRIVE\DOCUMENTS\C++\COLLISION\ROTATE & POW\SDLTEMPLATE\X64\DEBUG\POWERUP.OBJ|C:\USERS\LANCE\ONEDRIVE\DOCUMENTS\C++\COLLISION\ROTATE & POW\SDLTEMPLATE\X64\DEBUG\SCENE.OBJ|C:\USERS\LANCE\ONEDRIVE\DOCUMENTS\C++\COLLISION\ROTATE & POW\SDLTEMPLATE\X64\DEBUG\SOUNDMANAGER.OBJ|C:\USERS\LANCE\ONEDRIVE\DOCUMENTS\C++\COLLISION\ROTATE & POW\SDLTEMPLATE\X64\DEBUG\TEXT.OBJ|C:\USERS\LANCE\ONEDRIVE\DOCUMENTS\C++\COLLISION\ROTATE & POW\SDLTEMPLATE\X64\DEBUG\UTIL.OBJ
/OUT:"C:\USERS\LANCE\ONEDRIVE\DOCUMENTS\C++\COLLISION\ROTATE & POW\X64\DEBUG\SDL-TEMPLATE.EXE" /INCREMENTAL /ILK:"X64\DEBUG\SDL-TEMPLATE.ILK" /NOLOGO /LIBPATH:LIB\X64 SDL2.LIB SDL2MAIN.LIB SDL2_IMAGE.LIB SDL2_MIXER.LIB KERNEL32.LIB USER32.LIB GDI32.LIB WINSPOOL.LIB COMDLG32.LIB ADVAPI32.LIB SHELL32.LIB OLE32.LIB OLEAUT32.LIB UUID.LIB ODBC32.LIB ODBCCP32.LIB /MANIFEST /MANIFESTUAC:"level='asInvoker' uiAccess='false'" /manifest:embed /DEBUG /PDB:"C:\USERS\LANCE\ONEDRIVE\DOCUMENTS\C++\COLLISION\ROTATE & POW\X64\DEBUG\SDL-TEMPLATE.PDB" /SUBSYSTEM:CONSOLE /TLBID:1 /DYNAMICBASE /NXCOMPAT /IMPLIB:"C:\USERS\LANCE\ONEDRIVE\DOCUMENTS\C++\COLLISION\ROTATE & POW\X64\DEBUG\SDL-TEMPLATE.LIB" /MACHINE:X64 X64\DEBUG\BULLET.OBJ
X64\DEBUG\DRAW.OBJ
X64\DEBUG\ENEMY.OBJ
X64\DEBUG\GAMEOBJECT.OBJ
X64\DEBUG\GAMESCENE.OBJ
X64\DEBUG\INIT.OBJ
X64\DEBUG\INPUT.OBJ
X64\DEBUG\L1ENEMY.OBJ
X64\DEBUG\LEVELUPENEMY.OBJ
X64\DEBUG\MAIN.OBJ
X64\DEBUG\MASTERENEMY.OBJ
X64\DEBUG\PLAYER.OBJ
X64\DEBUG\POWERUP.OBJ
X64\DEBUG\SCENE.OBJ
X64\DEBUG\SOUNDMANAGER.OBJ
X64\DEBUG\TEXT.OBJ
X64\DEBUG\UTIL.OBJ
